{
  "allPlaceholder": "",
  "showInfoWindowOnSelect": true,
  "sources": [
    {
      "layerId": "FAT_TailingsSites_OperationalLayers_20150413_3969",
      "url": "http://ghprodsrv01.giscoe.com/arcgis/rest/services/FraserAlexanderTailings/FAT_TailingsSites_OperationalLayers_20150413/FeatureServer/2",
      "name": "FAT_TailingsSites_OperationalLayers_20150413 - Tailings Structures Centroid",
      "placeholder": "Search Client, Mine or Manager",
      "searchFields": [
        "Mine",
        "Client",
        "Business_Unit_Manager",
        "Business_Area_Manager"
      ],
      "displayField": "Site_TSF_Name",
      "exactMatch": false,
      "searchInCurrentMapExtent": false,
      "maxResults": 15,
      "type": "query"
    }
  ]
}